﻿{
    "profiles": {
      "Project Management Tool (Package)": {
        "commandName": "MsixPackage"
      },
      "Project Management Tool (Unpackaged)": {
        "commandName": "Project"
      }
    }
}
